[
	{
		"id": "613d687aafacfbb264cd5432",
		"FacultyName": "Trường Du lịch"
	},
	{
		"id": "613d687aafacfbb264cd5433",
		"FacultyName": "Trường Quốc tế"
	},
	{
		"id": "613d687aafacfbb264cd5434",
		"FacultyName": "Trường Khoa Học Máy Tính"
	},
	{
		"id": "613d687aafacfbb264cd5435",
		"FacultyName": "Khoa Y"
	},
	{
		"id": "613d687aafacfbb264cd5436",
		"FacultyName": "Khoa Dược"
	},
	{
		"id": "613d687aafacfbb264cd5437",
		"FacultyName": "Khoa Điều Dưỡng"
	},
	{
		"id": "613d687aafacfbb264cd5438",
		"FacultyName": "Khoa Kế Toán"
	},
	{
		"id": "613d687aafacfbb264cd5439",
		"FacultyName": "Khoa Quản Trị Kinh Doanh"
	},
	{
		"id": "613d687aafacfbb264cd543a",
		"FacultyName": "Khoa Luật"
	},
	{
		"id": "613d687aafacfbb264cd543b",
		"FacultyName": "Khoa Điện - Điện Tử"
	},
	{
		"id": "613d687aafacfbb264cd543c",
		"FacultyName": "Khoa Kiến trúc"
	},
	{
		"id": "613d687aafacfbb264cd543d",
		"FacultyName": "Khoa Môi trường & KH tự nhiên"
	},
	{
		"id": "613d687aafacfbb264cd543e",
		"FacultyName": "Khoa Xây Dựng"
	},
	{
		"id": "613d687aafacfbb264cd543f",
		"FacultyName": "Khoa Tiếng Anh"
	},
	{
		"id": "613d687aafacfbb264cd5440",
		"FacultyName": "Khoa Tiếng Hàn"
	},
	{
		"id": "613d687aafacfbb264cd5441",
		"FacultyName": "Khoa Tiếng Trung"
	},
	{
		"id": "613d687aafacfbb264cd5443",
		"FacultyName": "Khoa Khoa học Xã hội & Nhân văn"
	},
	{
		"id": "613d687aafacfbb264cd5444",
		"FacultyName": "Khoa Cơ Khí"
	},
	{
		"id": "613d687aafacfbb264cd5442",
		"FacultyName": "Khoa Tiếng Nhật"
	},
	{
		"id": "626268f29210d7d548c5ddcd",
		"FacultyName": "Khoa Mỹ thuật & Khoa học Tự nhiên"
	},
	{
		"id": "626269029210d7d548c5ddce",
		"FacultyName": "Khoa Kinh tế Tài chính"
	},
	{
		"id": "633ba0d9c02b3a21ee8b1ea3",
		"FacultyName": "Khoa Răng - Hàm - Mặt"
	},
	{
		"id": "6239616de651691494d80937",
		"FacultyName": "Khác (Sinh viên ngoài trường Duy Tân)"
	}
]