[
	{
		"id": "6445513a471ca7eab4cd4311",
		"RoleId": 0,
		"RoleName": "System Admin"
	},
	{
		"id": "613d6922afacfbb264cd5451",
		"RoleId": 1,
		"RoleName": "Chủ nhiệm"
	},
	{
		"id": "613d6922afacfbb264cd5452",
		"RoleId": 2,
		"RoleName": "Phó chủ nhiệm"
	},
	{
		"id": "613d6922afacfbb264cd5453",
		"RoleId": 3,
		"RoleName": "Thủ quỹ"
	},
	{
		"id": "61d82eff4ecdec54bb796c75",
		"RoleId": 4,
		"RoleName": "Trưởng ban hoạt động"
	},
	{
		"id": "61d82f0f4ecdec54bb796c76",
		"RoleId": 5,
		"RoleName": "Trưởng ban truyền thông"
	},
	{
		"id": "61d82f1f4ecdec54bb796c77",
		"RoleId": 6,
		"RoleName": "Trưởng ban đối ngoại"
	},
	{
		"id": "61d82f3c4ecdec54bb796c79",
		"RoleId": 8,
		"RoleName": "Cộng tác viên"
	},
	{
		"id": "61d82f2f4ecdec54bb796c78",
		"RoleId": 7,
		"RoleName": "Thành viên"
	},
	{
		"id": "61d82f6f4436da54e714528e",
		"RoleId": 9,
		"RoleName": "Ban truyền thông"
	},
	{
		"id": "62598bbcae60907471ca7593",
		"RoleId": 10,
		"RoleName": "Hỗ trợ BCN"
	}
]